{
  "data": {
    "search": {
      "bands": [
        {
          "id": "592f7fcdb7bb93268a46b589",
          "name": "JT Bruce",
          "genre": "Progressive Rock/Metal",
          "country": "United States",
          "__typename": "BandSearch"
        },
        {
          "id": "592f7fcdb7bb93268a46b5ef",
          "name": "Junior Bruce",
          "genre": "Stoner/Sludge Metal",
          "country": "United States",
          "__typename": "BandSearch"
        },
        {
          "id": "592f7c0b920666266c1cfb59",
          "name": "Bruce Dickinson",
          "genre": "Rock (early), Heavy Metal (later)",
          "country": "United Kingdom",
          "__typename": "BandSearch"
        }
      ],
      "albums": [
        {
          "id": "5a8bac66cb21d3d834ef43d9",
          "name": "Bruce Dickinson Alive",
          "year": "2005",
          "type": "Boxed set",
          "__typename": "AlbumSearch"
        },
        {
          "id": "5a8bac66cb21d3d834ef43c2",
          "name": "Bruce Dickinson - Dive! Dive! Live!",
          "year": "1991",
          "type": "Video",
          "__typename": "AlbumSearch"
        },
        {
          "id": "5a8bac66cb21d3d834ef43d7",
          "name": "The Best of Bruce Dickinson",
          "year": "2001",
          "type": "Compilation",
          "__typename": "AlbumSearch"
        }
      ],
      "artists": [
        {
          "id": "597aabc39ca0f821a2d5ac8d",
          "name": "Bruce Dickinson",
          "gender": null,
          "__typename": "ArtistSearch"
        },
        {
          "id": "5930c25979e4ad1e21394391",
          "name": "Bruce Dickinson",
          "gender": "Male",
          "__typename": "ArtistSearch"
        }
      ],
      "__typename": "Search"
    }
  }
}
