{
  "data": {
    "album": {
      "id": "59fd2859afb450411dfc5294",
      "name": "Piece of Mind",
      "picture":
        "https://metalheads.imgix.net/albums/59fd2859afb450411dfc5294_picture.jpg?auto=compress,enhance,redeye",
      "type": "Full-length",
      "year": "1983",
      "globalRating": 83,
      "ratingsCount": 2,
      "band": {
        "id": "592f7fa02615c92686b9c5aa",
        "name": "Iron Maiden",
        "__typename": "Band"
      },
      "__typename": "Album",
      "label": "EMI",
      "catalogId": "EMA 800",
      "format": "12\" vinyl (33⅓ RPM)",
      "releaseDate": "May 16th, 1983",
      "songs": [
        {
          "name": "Where Eagles Dare",
          "length": "06:13",
          "__typename": "Song"
        },
        { "name": "Revelations", "length": "06:48", "__typename": "Song" },
        { "name": "Flight of Icarus", "length": "03:51", "__typename": "Song" },
        {
          "name": "Die with Your Boots On",
          "length": "05:26",
          "__typename": "Song"
        },
        { "name": "The Trooper", "length": "04:12", "__typename": "Song" },
        { "name": "Still Life", "length": "04:57", "__typename": "Song" },
        { "name": "Quest for Fire", "length": "03:42", "__typename": "Song" },
        { "name": "Sun and Steel", "length": "03:27", "__typename": "Song" },
        { "name": "To Tame a Land", "length": "07:25", "__typename": "Song" }
      ],
      "lineUp": [
        {
          "id": "5930c25979e4ad1e21394391",
          "name": "Bruce Dickinson",
          "roles": "Vocals",
          "__typename": "AlbumArtist"
        },
        {
          "id": "5930c25979e4ad1e21394392",
          "name": "Nicko McBrain",
          "roles": "Drums",
          "__typename": "AlbumArtist"
        },
        {
          "id": "5930c25979e4ad1e21394390",
          "name": "Adrian Smith",
          "roles": "Guitars",
          "__typename": "AlbumArtist"
        },
        {
          "id": "5930c25979e4ad1e2139438e",
          "name": "Steve Harris",
          "roles": "Bass",
          "__typename": "AlbumArtist"
        },
        {
          "id": "5930c25979e4ad1e2139438f",
          "name": "Dave Murray",
          "roles": "Guitars",
          "__typename": "AlbumArtist"
        }
      ]
    }
  }
}
